…
Take careful inventory of what’s going to happen here. We’re going to
set a reproducible seed, and then we’re going to create two new “random”
variables, called `x` and `e` from a normal distribution.

``` r
set.seed(8675309) # Jenny, I got your number...
tibble(x = rnorm(100),
       e = rnorm(100)) -> Fake

Fake
#> # A tibble: 100 × 2
#>          x       e
#>      <dbl>   <dbl>
#>  1 -0.997   0.745 
#>  2  0.722  -1.35  
#>  3 -0.617   0.330 
#>  4  2.03   -0.0127
#>  5  1.07   -0.464 
#>  6  0.987   0.205 
#>  7  0.0275  0.464 
#>  8  0.673  -0.757 
#>  9  0.572  -1.07  
#> 10  0.904  -0.263 
#> # ℹ 90 more rows
```
…
Notice that the correlation between *x* and *e* is about .06, but the
95% interval includes 0. The modest correlation we do observation is
indeed due to random chance.

Now, watch this. We’re going to create a new variable, *y*, that is a
linear function of *x* and *e*, plus some baseline value (intercept)
when *x* is 0.

``` r
Fake %>%
  mutate(y = 5 + x + e) -> Fake

Fake
#> # A tibble: 100 × 3
#>          x       e     y
#>      <dbl>   <dbl> <dbl>
#>  1 -0.997   0.745   4.75
#>  2  0.722  -1.35    4.38
#>  3 -0.617   0.330   4.71
#>  4  2.03   -0.0127  7.02
#>  5  1.07   -0.464   5.60
#>  6  0.987   0.205   6.19
#>  7  0.0275  0.464   5.49
#>  8  0.673  -0.757   4.92
#>  9  0.572  -1.07    4.51
#> 10  0.904  -0.263   5.64
#> # ℹ 90 more rows
```
…
Here’s another way of illustrating this. Let’s create another variable,
*y2*. It has this formula.

``` r
# I could alternatively write this as just `y2 = x + e`.
Fake %>%
  mutate(y2 = 0 + x  + e) -> Fake

Fake
#> # A tibble: 100 × 4
#>          x       e     y      y2
#>      <dbl>   <dbl> <dbl>   <dbl>
#>  1 -0.997   0.745   4.75 -0.252 
#>  2  0.722  -1.35    4.38 -0.625 
#>  3 -0.617   0.330   4.71 -0.287 
#>  4  2.03   -0.0127  7.02  2.02  
#>  5  1.07   -0.464   5.60  0.602 
#>  6  0.987   0.205   6.19  1.19  
#>  7  0.0275  0.464   5.49  0.491 
#>  8  0.673  -0.757   4.92 -0.0838
#>  9  0.572  -1.07    4.51 -0.493 
#> 10  0.904  -0.263   5.64  0.641 
#> # ℹ 90 more rows
```
…
In R speak, these are the fitted values and the residuals. The fitted
values are the estimated values of *y* for each data point (given the
regressors). You may also call these the *y*-hats. The residuals are the
distances between what was fitted and what the observation really is.
These are the estimates of *e* from the data-generating process.

You can extract them both pretty easily in R. Observe, for `M1`.

``` r
Fake %>%
  mutate(fitted = fitted(M1),
         resid = resid(M1)) -> Fake

Fake
#> # A tibble: 100 × 6
#>          x       e     y      y2 fitted   resid
#>      <dbl>   <dbl> <dbl>   <dbl>  <dbl>   <dbl>
#>  1 -0.997   0.745   4.75 -0.252    3.88  0.867 
#>  2  0.722  -1.35    4.38 -0.625    5.72 -1.34  
#>  3 -0.617   0.330   4.71 -0.287    4.29  0.427 
#>  4  2.03   -0.0127  7.02  2.02     7.11 -0.0965
#>  5  1.07   -0.464   5.60  0.602    6.08 -0.482 
#>  6  0.987   0.205   6.19  1.19     6.00  0.192 
#>  7  0.0275  0.464   5.49  0.491    4.97  0.516 
#>  8  0.673  -0.757   4.92 -0.0838   5.66 -0.748 
#>  9  0.572  -1.07    4.51 -0.493    5.56 -1.05  
#> 10  0.904  -0.263   5.64  0.641    5.91 -0.270 
#> # ℹ 90 more rows
```
…
Keep your fitted values and residuals handy, as they’ll be very useful
(really: necessary) information for model diagnostics. Another good way
of extracting them with the `augment()` function in the `{broom}`
package that is installed when you install `{tidyverse}`.

``` r
broom::augment(M1)
#> # A tibble: 100 × 8
#>        y       x .fitted  .resid   .hat .sigma  .cooksd .std.resid
#>    <dbl>   <dbl>   <dbl>   <dbl>  <dbl>  <dbl>    <dbl>      <dbl>
#>  1  4.75 -0.997     3.88  0.867  0.0229  0.995 0.00911      0.882 
#>  2  4.38  0.722     5.72 -1.34   0.0152  0.990 0.0143      -1.36  
#>  3  4.71 -0.617     4.29  0.427  0.0152  0.998 0.00145      0.432 
#>  4  7.02  2.03      7.11 -0.0965 0.0557  0.999 0.000295    -0.0999
#>  5  5.60  1.07      6.08 -0.482  0.0220  0.998 0.00270     -0.490 
#>  6  6.19  0.987     6.00  0.192  0.0202  0.999 0.000394     0.195 
#>  7  5.49  0.0275    4.97  0.516  0.0100  0.998 0.00138      0.522 
#>  8  4.92  0.673     5.66 -0.748  0.0145  0.996 0.00423     -0.758 
#>  9  4.51  0.572     5.56 -1.05   0.0132  0.993 0.00754     -1.06  
#> 10  5.64  0.904     5.91 -0.270  0.0185  0.999 0.000708    -0.274 
#> # ℹ 90 more rows
```
…
