…
## Building Toward Multiple Regression

Last time we had a lab, we just focused on bivariate linear model with
fake data that we created. The goal of that exercise was to show you
what the linear model looked like when you had maximum control over the
model parameters. We’ll use some actual data this time. This is a survey
data set from the United Kingdom in 2018-19, largely probing individual
attitudes toward immigration. You can find out more about this data set
by typing `?ESS9GB` into Rstudio. You can also [go
here](http://svmiller.com/stevedata/reference/ESS9GB.html) for a web
version of the codebook.

``` r
ESS9GB
#> # A tibble: 1,905 × 19
#>    name      essround edition  idno cntry region   brncntr stintrvw   endintrvw 
#>    <chr>        <dbl> <chr>   <dbl> <chr> <chr>      <dbl> <date>     <date>    
#>  1 ESS9e01_2        9 1.2        39 GB    West Mi…       1 2018-09-11 2018-09-11
#>  2 ESS9e01_2        9 1.2       135 GB    South W…       1 2018-09-07 2018-09-07
#>  3 ESS9e01_2        9 1.2       142 GB    South E…       1 2018-11-03 2018-11-03
#>  4 ESS9e01_2        9 1.2       146 GB    Norther…       1 2018-10-06 2018-10-17
#>  5 ESS9e01_2        9 1.2       164 GB    Norther…       1 2018-10-31 2018-10-31
#>  6 ESS9e01_2        9 1.2       191 GB    Norther…       1 2018-10-27 2018-10-27
#>  7 ESS9e01_2        9 1.2       213 GB    South W…       1 2018-11-08 2018-11-08
#>  8 ESS9e01_2        9 1.2       238 GB    London         1 2019-01-31 2019-01-31
#>  9 ESS9e01_2        9 1.2       245 GB    East of…       1 2018-09-07 2018-09-07
#> 10 ESS9e01_2        9 1.2       265 GB    East Mi…       1 2019-02-10 2019-02-10
#> # ℹ 1,895 more rows
#> # ℹ 10 more variables: imbgeco <dbl>, imueclt <dbl>, imwbcnt <dbl>,
#> #   immigsent <dbl>, agea <dbl>, female <dbl>, eduyrs <dbl>, uempla <dbl>,
#> #   hinctnta <dbl>, lrscale <dbl>
```
…
