…
These wrappers are also flexible with files on the internet. For
example, these will work. Just remember to assign them to an object.

``` r
# Note: hypothetical data
Apply <- haven::read_dta("https://stats.idre.ucla.edu/stat/data/ologit.dta")

# Let's take a look at these data.
Apply
#> # A tibble: 400 × 4
#>    apply               pared public   gpa
#>    <dbl+lbl>           <dbl>  <dbl> <dbl>
#>  1 2 [very likely]         0      0  3.26
#>  2 1 [somewhat likely]     1      0  3.21
#>  3 0 [unlikely]            1      1  3.94
#>  4 1 [somewhat likely]     0      0  2.81
#>  5 1 [somewhat likely]     0      0  2.53
#>  6 0 [unlikely]            0      1  2.59
#>  7 1 [somewhat likely]     0      0  2.56
#>  8 1 [somewhat likely]     0      0  2.73
#>  9 0 [unlikely]            0      0  3   
#> 10 1 [somewhat likely]     1      0  3.5 
#> # ℹ 390 more rows
```
…
### `select()`

`select()` is useful for basic (but important) data management. You can
use it to grab (or omit) columns from data. For example, let’s say I
wanted to grab all the columns in the data. I could do that with the
following command.

``` r
pwt_sample %>% select(everything())  # grab everything
#> # A tibble: 1,540 × 12
#>    country   isocode  year   pop    hc  rgdpna   rgdpo   rgdpe labsh   avh   emp
#>    <chr>     <chr>   <int> <dbl> <dbl>   <dbl>   <dbl>   <dbl> <dbl> <dbl> <dbl>
#>  1 Australia AUS      1950  8.35  2.67 127461. 114135. 121994. 0.680 2171.  3.43
#>  2 Australia AUS      1951  8.60  2.67 130703. 110543. 113929. 0.680 2151.  3.52
#>  3 Australia AUS      1952  8.78  2.68 125353. 108883. 111220. 0.680 2131.  3.59
#>  4 Australia AUS      1953  8.95  2.69 138952. 122688. 123329. 0.680 2111.  3.65
#>  5 Australia AUS      1954  9.16  2.70 150061. 131836. 131472. 0.680 2092.  3.73
#>  6 Australia AUS      1955  9.37  2.70 155980. 138381. 136247. 0.680 2072.  3.81
#>  7 Australia AUS      1956  9.60  2.71 156338. 140420. 139239. 0.680 2053.  3.90
#>  8 Australia AUS      1957  9.81  2.72 159762. 141453. 139158. 0.680 2034.  3.95
#>  9 Australia AUS      1958 10.0   2.73 170599. 152677. 148572. 0.680 2015.  3.98
#> 10 Australia AUS      1959 10.2   2.74 181049. 162661. 159401. 0.680 1997.  4.03
#> # ℹ 1,530 more rows
#> # ℹ 1 more variable: rnna <dbl>
```

Do note this is kind of a redundant command. You could just as well spit
the entire data into the console and it would’ve done the same thing.
Still, here’s if I wanted everything except wanted to drop the labor
share of income variable.

``` r
pwt_sample %>% select(-labsh) # grab everything, but drop the labsh variable.
#> # A tibble: 1,540 × 11
#>    country   isocode  year   pop    hc  rgdpna   rgdpo  rgdpe   avh   emp   rnna
#>    <chr>     <chr>   <int> <dbl> <dbl>   <dbl>   <dbl>  <dbl> <dbl> <dbl>  <dbl>
#>  1 Australia AUS      1950  8.35  2.67 127461. 114135. 1.22e5 2171.  3.43 6.40e5
#>  2 Australia AUS      1951  8.60  2.67 130703. 110543. 1.14e5 2151.  3.52 6.90e5
#>  3 Australia AUS      1952  8.78  2.68 125353. 108883. 1.11e5 2131.  3.59 7.05e5
#>  4 Australia AUS      1953  8.95  2.69 138952. 122688. 1.23e5 2111.  3.65 7.33e5
#>  5 Australia AUS      1954  9.16  2.70 150061. 131836. 1.31e5 2092.  3.73 7.71e5
#>  6 Australia AUS      1955  9.37  2.70 155980. 138381. 1.36e5 2072.  3.81 8.10e5
#>  7 Australia AUS      1956  9.60  2.71 156338. 140420. 1.39e5 2053.  3.90 8.38e5
#>  8 Australia AUS      1957  9.81  2.72 159762. 141453. 1.39e5 2034.  3.95 8.67e5
#>  9 Australia AUS      1958 10.0   2.73 170599. 152677. 1.49e5 2015.  3.98 9.05e5
#> 10 Australia AUS      1959 10.2   2.74 181049. 162661. 1.59e5 1997.  4.03 9.47e5
#> # ℹ 1,530 more rows
```

Here’s a more typical case. Assume you’re working with a large data
object and you just want a handful of things. In this case, we have all
these economic data on these 21 countries (ed. we really don’t, but roll
with it), but we just want the GDP data along with the important
identifying information for country and year. Here’s how we’d do that in
the `select()` function, again with some assistance from the pipe.

``` r
pwt_sample %>% select(country, year, rgdpna) # grab just these three columns.
#> # A tibble: 1,540 × 3
#>    country    year  rgdpna
#>    <chr>     <int>   <dbl>
#>  1 Australia  1950 127461.
#>  2 Australia  1951 130703.
#>  3 Australia  1952 125353.
#>  4 Australia  1953 138952.
#>  5 Australia  1954 150061.
#>  6 Australia  1955 155980.
#>  7 Australia  1956 156338.
#>  8 Australia  1957 159762.
#>  9 Australia  1958 170599.
#> 10 Australia  1959 181049.
#> # ℹ 1,530 more rows
```
…
Here, let’s do a simple `group_by()` exercise, while also introducing
you to another function: `slice()`. We’re going to group by country in
`pwt_sample` and “slice” the first observation for each group/country.
Notice how we can chain these together with a pipe operator.

``` r
# Notice we can chain some pipes together
pwt_sample %>%
  # group by country
  group_by(country) %>%
  # Get me the first observation, by group.
  slice(1)
#> # A tibble: 22 × 12
#> # Groups:   country [22]
#>    country  isocode  year   pop    hc  rgdpna   rgdpo   rgdpe  labsh   avh   emp
#>    <chr>    <chr>   <int> <dbl> <dbl>   <dbl>   <dbl>   <dbl>  <dbl> <dbl> <dbl>
#>  1 Austral… AUS      1950  8.35  2.67 127461. 114135. 121994.  0.680 2171.  3.43
#>  2 Austria  AUT      1950  6.98  2.55  56938.  41645.  40430.  0.633 2086.  2.93
#>  3 Belgium  BEL      1950  8.63  2.20  85076.  72068.  75250.  0.645 2096.  3.46
#>  4 Canada   CAN      1950 13.8   2.48 198071. 176435. 170050.  0.769 2209.  6.12
#>  5 Chile    CHL      1950 NA    NA        NA      NA      NA  NA       NA  NA   
#>  6 Denmark  DNK      1950  4.27  2.84  54773.  45143.  44974.  0.642 2050.  1.97
#>  7 Finland  FIN      1950  4.01  2.12  29957.  26424.  25824.  0.692 2025.  2.19
#>  8 France   FRA      1950 42.5   2.18 372194. 324790. 325674.  0.668 2351. 19.6 
#>  9 Germany  DEU      1950 68.7   2.43 495069. 358993. 351956.  0.668 2428. 30.9 
#> 10 Greece   GRC      1950 NA    NA        NA      NA      NA  NA       NA  NA   
#> # ℹ 12 more rows
#> # ℹ 1 more variable: rnna <dbl>
```
…
Observe:

``` r
pwt_sample %>%
  # group by country
  group_by(country) %>%
  # Get me the first observation, by group.
  slice(1)
#> # A tibble: 22 × 12
#> # Groups:   country [22]
#>    country  isocode  year   pop    hc  rgdpna   rgdpo   rgdpe  labsh   avh   emp
#>    <chr>    <chr>   <int> <dbl> <dbl>   <dbl>   <dbl>   <dbl>  <dbl> <dbl> <dbl>
#>  1 Austral… AUS      1950  8.35  2.67 127461. 114135. 121994.  0.680 2171.  3.43
#>  2 Austria  AUT      1950  6.98  2.55  56938.  41645.  40430.  0.633 2086.  2.93
#>  3 Belgium  BEL      1950  8.63  2.20  85076.  72068.  75250.  0.645 2096.  3.46
#>  4 Canada   CAN      1950 13.8   2.48 198071. 176435. 170050.  0.769 2209.  6.12
#>  5 Chile    CHL      1950 NA    NA        NA      NA      NA  NA       NA  NA   
#>  6 Denmark  DNK      1950  4.27  2.84  54773.  45143.  44974.  0.642 2050.  1.97
#>  7 Finland  FIN      1950  4.01  2.12  29957.  26424.  25824.  0.692 2025.  2.19
#>  8 France   FRA      1950 42.5   2.18 372194. 324790. 325674.  0.668 2351. 19.6 
#>  9 Germany  DEU      1950 68.7   2.43 495069. 358993. 351956.  0.668 2428. 30.9 
#> 10 Greece   GRC      1950 NA    NA        NA      NA      NA  NA       NA  NA   
#> # ℹ 12 more rows
#> # ℹ 1 more variable: rnna <dbl>

pwt_sample %>%
  slice(1, .by=country)
#> # A tibble: 22 × 12
#>    country  isocode  year   pop    hc  rgdpna   rgdpo   rgdpe  labsh   avh   emp
#>    <chr>    <chr>   <int> <dbl> <dbl>   <dbl>   <dbl>   <dbl>  <dbl> <dbl> <dbl>
#>  1 Austral… AUS      1950  8.35  2.67 127461. 114135. 121994.  0.680 2171.  3.43
#>  2 Austria  AUT      1950  6.98  2.55  56938.  41645.  40430.  0.633 2086.  2.93
#>  3 Belgium  BEL      1950  8.63  2.20  85076.  72068.  75250.  0.645 2096.  3.46
#>  4 Canada   CAN      1950 13.8   2.48 198071. 176435. 170050.  0.769 2209.  6.12
#>  5 Switzer… CHE      1950  4.61  2.94 114900.  74885.  72672.  0.683 2040.  2.33
#>  6 Chile    CHL      1950 NA    NA        NA      NA      NA  NA       NA  NA   
#>  7 Germany  DEU      1950 68.7   2.43 495069. 358993. 351956.  0.668 2428. 30.9 
#>  8 Denmark  DNK      1950  4.27  2.84  54773.  45143.  44974.  0.642 2050.  1.97
#>  9 Spain    ESP      1950 28.1   1.87 144617. 108194. 107746.  0.627 2209. 11.6 
#> 10 Finland  FIN      1950  4.01  2.12  29957.  26424.  25824.  0.692 2025.  2.19
#> # ℹ 12 more rows
#> # ℹ 1 more variable: rnna <dbl>
```
…
More importantly, `summarize()` works wonderfully with `group_by()` or
`.by=`. For example, for each country (`group_by(country)`), let’s get
the maximum GDP observed in the data.

``` r
pwt_sample %>%
  group_by(country) %>%
  # Give me the max real GDP observed in the data.
  summarize(maxgdp = max(rgdpna, na.rm=T))
#> # A tibble: 22 × 2
#>    country     maxgdp
#>    <chr>        <dbl>
#>  1 Australia 1319339.
#>  2 Austria    476657.
#>  3 Belgium    534586.
#>  4 Canada    1873625.
#>  5 Chile      443551.
#>  6 Denmark    311122.
#>  7 Finland    247934.
#>  8 France    2963641.
#>  9 Germany   4312886 
#> 10 Greece     378189.
#> # ℹ 12 more rows
```

`.by` does the same here.

``` r
pwt_sample %>%
  # Give me the max real GDP observed in the data, .by country.
  summarize(maxgdp = max(rgdpna, na.rm=T), .by=country)
#> # A tibble: 22 × 2
#>    country       maxgdp
#>    <chr>          <dbl>
#>  1 Australia   1319339.
#>  2 Austria      476657.
#>  3 Belgium      534586.
#>  4 Canada      1873625.
#>  5 Switzerland  648580.
#>  6 Chile        443551.
#>  7 Germany     4312886 
#>  8 Denmark      311122.
#>  9 Spain       1895669 
#> 10 Finland      247934.
#> # ℹ 12 more rows
```
…
Observe:

``` r
pwt_sample %>%
  group_by(country) %>%
  # translated: give me the row, for each country, in which real GDP is the max (ignoring missing values).
  slice(which(rgdpna == max(rgdpna, na.rm=T)))
#> # A tibble: 22 × 12
#> # Groups:   country [22]
#>    country   isocode  year   pop    hc   rgdpna   rgdpo  rgdpe labsh   avh   emp
#>    <chr>     <chr>   <int> <dbl> <dbl>    <dbl>   <dbl>  <dbl> <dbl> <dbl> <dbl>
#>  1 Australia AUS      2018 24.9   3.54 1319339.  1.35e6 1.28e6 0.572 1729. 12.6 
#>  2 Austria   AUT      2019  8.96  3.38  476657.  4.78e5 4.98e5 0.584 1611.  4.55
#>  3 Belgium   BEL      2019 11.5   3.15  534586.  5.18e5 5.89e5 0.595 1586.  4.92
#>  4 Canada    CAN      2019 37.4   3.72 1873625.  1.87e6 1.84e6 0.655 1689. 19.3 
#>  5 Chile     CHL      2019 19.0   3.15  443551.  4.41e5 4.47e5 0.440 1914.  8.10
#>  6 Denmark   DNK      2019  5.77  3.60  311122.  3.12e5 3.22e5 0.620 1381.  2.97
#>  7 Finland   FIN      2019  5.53  3.50  247934.  2.48e5 2.61e5 0.571 1591.  2.67
#>  8 France    FRA      2019 67.4   3.23 2963641.  2.95e6 3.02e6 0.624 1505. 28.5 
#>  9 Germany   DEU      2019 83.5   3.68 4312886   4.39e6 4.43e6 0.642 1386. 44.8 
#> 10 Greece    GRC      2007 11.1   2.88  378189.  3.52e5 3.80e5 0.543 2111.  4.86
#> # ℹ 12 more rows
#> # ℹ 1 more variable: rnna <dbl>

# or...

pwt_sample %>%
  # translated: give me the row, for each country, in which real GDP is the max (ignoring missing values).
  slice(which(rgdpna == max(rgdpna, na.rm=T)), .by=country)
#> # A tibble: 22 × 12
#>    country     isocode  year   pop    hc  rgdpna  rgdpo  rgdpe labsh   avh   emp
#>    <chr>       <chr>   <int> <dbl> <dbl>   <dbl>  <dbl>  <dbl> <dbl> <dbl> <dbl>
#>  1 Australia   AUS      2018 24.9   3.54  1.32e6 1.35e6 1.28e6 0.572 1729. 12.6 
#>  2 Austria     AUT      2019  8.96  3.38  4.77e5 4.78e5 4.98e5 0.584 1611.  4.55
#>  3 Belgium     BEL      2019 11.5   3.15  5.35e5 5.18e5 5.89e5 0.595 1586.  4.92
#>  4 Canada      CAN      2019 37.4   3.72  1.87e6 1.87e6 1.84e6 0.655 1689. 19.3 
#>  5 Switzerland CHE      2019  8.59  3.70  6.49e5 6.48e5 6.17e5 0.684 1557.  5.01
#>  6 Chile       CHL      2019 19.0   3.15  4.44e5 4.41e5 4.47e5 0.440 1914.  8.10
#>  7 Germany     DEU      2019 83.5   3.68  4.31e6 4.39e6 4.43e6 0.642 1386. 44.8 
#>  8 Denmark     DNK      2019  5.77  3.60  3.11e5 3.12e5 3.22e5 0.620 1381.  2.97
#>  9 Spain       ESP      2019 46.7   2.99  1.90e6 1.89e6 1.93e6 0.555 1686. 19.9 
#> 10 Finland     FIN      2019  5.53  3.50  2.48e5 2.48e5 2.61e5 0.571 1591.  2.67
#> # ℹ 12 more rows
#> # ℹ 1 more variable: rnna <dbl>
```
…
Anyway, here’s “Wonderw-”… sorry, here’s that new real GDP in billions
variable we wanted.

``` r
pwt_sample %>%
  # Convert rgdpna from real GDP in millions to real GDP in billions
  mutate(rgdpnab = rgdpna/1000) %>%
  # select just what we want for presentation
  select(country:year, rgdpna, rgdpnab)
#> # A tibble: 1,540 × 5
#>    country   isocode  year  rgdpna rgdpnab
#>    <chr>     <chr>   <int>   <dbl>   <dbl>
#>  1 Australia AUS      1950 127461.    127.
#>  2 Australia AUS      1951 130703.    131.
#>  3 Australia AUS      1952 125353.    125.
#>  4 Australia AUS      1953 138952.    139.
#>  5 Australia AUS      1954 150061.    150.
#>  6 Australia AUS      1955 155980.    156.
#>  7 Australia AUS      1956 156338.    156.
#>  8 Australia AUS      1957 159762.    160.
#>  9 Australia AUS      1958 170599.    171.
#> 10 Australia AUS      1959 181049.    181.
#> # ℹ 1,530 more rows
```

Let’s assume we wanted to create a dummy variable for observations in
the data starting from the Great Recession forward? In other words,
let’s create a dummy variable for all observations that were in 2008 or
later.

``` r
pwt_sample %>%
  mutate(post_recession = ifelse(year >= 2008, 1, 0))  %>%
  select(country:year, post_recession)
#> # A tibble: 1,540 × 4
#>    country   isocode  year post_recession
#>    <chr>     <chr>   <int>          <dbl>
#>  1 Australia AUS      1950              0
#>  2 Australia AUS      1951              0
#>  3 Australia AUS      1952              0
#>  4 Australia AUS      1953              0
#>  5 Australia AUS      1954              0
#>  6 Australia AUS      1955              0
#>  7 Australia AUS      1956              0
#>  8 Australia AUS      1957              0
#>  9 Australia AUS      1958              0
#> 10 Australia AUS      1959              0
#> # ℹ 1,530 more rows
```

Knowing these data go to 2019, we can do this another way as well.

``` r
pwt_sample %>%
  mutate(post_recession = ifelse(year %in% c(2008:2019), 1, 0)) %>%
  select(country:year, post_recession)
#> # A tibble: 1,540 × 4
#>    country   isocode  year post_recession
#>    <chr>     <chr>   <int>          <dbl>
#>  1 Australia AUS      1950              0
#>  2 Australia AUS      1951              0
#>  3 Australia AUS      1952              0
#>  4 Australia AUS      1953              0
#>  5 Australia AUS      1954              0
#>  6 Australia AUS      1955              0
#>  7 Australia AUS      1956              0
#>  8 Australia AUS      1957              0
#>  9 Australia AUS      1958              0
#> 10 Australia AUS      1959              0
#> # ℹ 1,530 more rows
```

Economists typically care about GDP per capita, right? We can create
that kind of data ourselves based on information that we have in
`pwt_sample`.

``` r
pwt_sample %>%
  mutate(rgdppc = rgdpna/pop) %>%
  select(country:year, rgdpna, pop, rgdppc)
#> # A tibble: 1,540 × 6
#>    country   isocode  year  rgdpna   pop rgdppc
#>    <chr>     <chr>   <int>   <dbl> <dbl>  <dbl>
#>  1 Australia AUS      1950 127461.  8.35 15257.
#>  2 Australia AUS      1951 130703.  8.60 15198.
#>  3 Australia AUS      1952 125353.  8.78 14273.
#>  4 Australia AUS      1953 138952.  8.95 15524.
#>  5 Australia AUS      1954 150061.  9.16 16384.
#>  6 Australia AUS      1955 155980.  9.37 16639.
#>  7 Australia AUS      1956 156338.  9.60 16285.
#>  8 Australia AUS      1957 159762.  9.81 16278.
#>  9 Australia AUS      1958 170599. 10.0  17027.
#> 10 Australia AUS      1959 181049. 10.2  17684.
#> # ℹ 1,530 more rows
```
…
You might know—or should know, as you progress—that some panel methods
look for “within” effects inside cross-sectional units by looking at the
value of some variable relative to the cross-sectional average for that
variable. Let’s use the real GDP per capita variable we can create as an
example. Observe what’s going to happen here.

``` r
pwt_sample %>%
  mutate(rgdppc = rgdpna/pop) %>%
  select(country:year, rgdpna, pop, rgdppc) %>%
  mutate(meanrgdppc = mean(rgdppc),
         diffrgdppc = rgdppc - mean(rgdppc),
         .by=country) 
#> # A tibble: 1,540 × 8
#>    country   isocode  year  rgdpna   pop rgdppc meanrgdppc diffrgdppc
#>    <chr>     <chr>   <int>   <dbl> <dbl>  <dbl>      <dbl>      <dbl>
#>  1 Australia AUS      1950 127461.  8.35 15257.     32112.    -16854.
#>  2 Australia AUS      1951 130703.  8.60 15198.     32112.    -16914.
#>  3 Australia AUS      1952 125353.  8.78 14273.     32112.    -17839.
#>  4 Australia AUS      1953 138952.  8.95 15524.     32112.    -16588.
#>  5 Australia AUS      1954 150061.  9.16 16384.     32112.    -15728.
#>  6 Australia AUS      1955 155980.  9.37 16639.     32112.    -15473.
#>  7 Australia AUS      1956 156338.  9.60 16285.     32112.    -15827.
#>  8 Australia AUS      1957 159762.  9.81 16278.     32112.    -15834.
#>  9 Australia AUS      1958 170599. 10.0  17027.     32112.    -15085.
#> 10 Australia AUS      1959 181049. 10.2  17684.     32112.    -14428.
#> # ℹ 1,530 more rows
```
…
Here, let’s grab just the American observations by filtering to where
`isocode` == “USA”.

``` r
pwt_sample %>%
  # give me just the USA observations
  filter(isocode == "USA")
#> # A tibble: 70 × 12
#>    country      isocode  year   pop    hc rgdpna  rgdpo  rgdpe labsh   avh   emp
#>    <chr>        <chr>   <int> <dbl> <dbl>  <dbl>  <dbl>  <dbl> <dbl> <dbl> <dbl>
#>  1 United Stat… USA      1950  156.  2.58 2.47e6 2.47e6 2.45e6 0.628 1990.  62.8
#>  2 United Stat… USA      1951  158.  2.60 2.67e6 2.66e6 2.62e6 0.634 2032.  65.1
#>  3 United Stat… USA      1952  161.  2.61 2.77e6 2.75e6 2.72e6 0.645 2028.  65.9
#>  4 United Stat… USA      1953  164.  2.62 2.90e6 2.88e6 2.85e6 0.644 2021.  66.8
#>  5 United Stat… USA      1954  167.  2.63 2.89e6 2.87e6 2.84e6 0.637 1998.  65.6
#>  6 United Stat… USA      1955  170.  2.65 3.09e6 3.08e6 3.06e6 0.627 2006.  67.5
#>  7 United Stat… USA      1956  173.  2.66 3.16e6 3.15e6 3.12e6 0.640 1990.  69.1
#>  8 United Stat… USA      1957  176.  2.68 3.23e6 3.22e6 3.19e6 0.639 1963.  69.5
#>  9 United Stat… USA      1958  179.  2.69 3.20e6 3.19e6 3.17e6 0.636 1928.  68.2
#> 10 United Stat… USA      1959  182.  2.71 3.42e6 3.42e6 3.40e6 0.629 1954.  69.8
#> # ℹ 60 more rows
#> # ℹ 1 more variable: rnna <dbl>
```

We could also use `filter()` to select observations from the most recent
year.

``` r
pwt_sample %>%
  # give me the observations from the most recent year.
  filter(year == max(year))
#> # A tibble: 22 × 12
#>    country     isocode  year   pop    hc  rgdpna  rgdpo  rgdpe labsh   avh   emp
#>    <chr>       <chr>   <int> <dbl> <dbl>   <dbl>  <dbl>  <dbl> <dbl> <dbl> <dbl>
#>  1 Australia   AUS      2019 25.2   3.55  1.32e6 1.36e6 1.28e6 0.572 1727. 12.9 
#>  2 Austria     AUT      2019  8.96  3.38  4.77e5 4.78e5 4.98e5 0.584 1611.  4.55
#>  3 Belgium     BEL      2019 11.5   3.15  5.35e5 5.18e5 5.89e5 0.595 1586.  4.92
#>  4 Canada      CAN      2019 37.4   3.72  1.87e6 1.87e6 1.84e6 0.655 1689. 19.3 
#>  5 Switzerland CHE      2019  8.59  3.70  6.49e5 6.48e5 6.17e5 0.684 1557.  5.01
#>  6 Chile       CHL      2019 19.0   3.15  4.44e5 4.41e5 4.47e5 0.440 1914.  8.10
#>  7 Germany     DEU      2019 83.5   3.68  4.31e6 4.39e6 4.43e6 0.642 1386. 44.8 
#>  8 Denmark     DNK      2019  5.77  3.60  3.11e5 3.12e5 3.22e5 0.620 1381.  2.97
#>  9 Spain       ESP      2019 46.7   2.99  1.90e6 1.89e6 1.93e6 0.555 1686. 19.9 
#> 10 Finland     FIN      2019  5.53  3.50  2.48e5 2.48e5 2.61e5 0.571 1591.  2.67
#> # ℹ 12 more rows
#> # ℹ 1 more variable: rnna <dbl>
```
…
