…
Eww, gross. That shouldn’t look like that. Gross.

You may also want to use this an opportunity to learn about the
`augment()` function in `{broom}`. You can use this to extract pertinent
information from the model. First, let’s see what comes out.

``` r
broom::augment(M1)
#> # A tibble: 252 × 14
#>    .rownames     ler xm_qudsest wbgdppc2011est  init milex mindur    cinc
#>    <chr>       <dbl>      <dbl>          <dbl> <dbl> <dbl>  <dbl>   <dbl>
#>  1 1          0.0270   -1.58              7.36     0   672    259 0.00559
#>  2 2         35.7       0.376             8.42     1 36520    259 0.298  
#>  3 3          0.933    -1.58              1.55     1   211    122 0.00353
#>  4 5          0.593    -1.58              7.93     1  1270    527 0.0114 
#>  5 6          1.57     -1.05              6.54     0  6278    527 0.0714 
#>  6 9         76        -0.0626            8.22     1 16462    257 0.0441 
#>  7 10        78         0.00633           8.15     1 12506    257 0.0289 
#>  8 11        15.9       0.226             8.63     1 37508    257 0.127  
#>  9 12         2.09      0.981             8.88     1 38588    257 0.185  
#> 10 13         7.56      0.737             8.98     1 63547    257 0.169  
#> # ℹ 242 more rows
#> # ℹ 6 more variables: .fitted <dbl>, .resid <dbl>, .hat <dbl>, .sigma <dbl>,
#> #   .cooksd <dbl>, .std.resid <dbl>
…
